<svg width="149" height="42" viewBox="0 0 149 42" fill="none" xmlns="http://www.w3.org/2000/svg">
<g clip-path="url(#clip0)">
<path d="M130.587 25.34V6.75504H140.127C141.492 6.70441 142.857 6.85775 144.177 7.21003C145.096 7.50672 145.891 8.10067 146.437 8.8988C146.967 9.75368 147.263 10.7329 147.297 11.7387C147.33 12.7445 147.1 13.7415 146.629 14.63C146.192 15.3817 145.57 16.0083 144.822 16.45C144.193 16.8 143.513 17.0481 142.806 17.1851C143.334 17.3403 143.836 17.5702 144.299 17.8676C144.621 18.1649 144.913 18.4931 145.172 18.8475C145.475 19.2065 145.743 19.5932 145.974 20.0026L148.75 25.3663H142.291L139.228 19.705C138.985 19.1614 138.635 18.6731 138.198 18.27C137.784 17.9876 137.294 17.8381 136.793 17.8413H136.286V25.3663L130.587 25.34ZM136.33 14.3151H138.774C139.287 14.2745 139.795 14.1896 140.293 14.0613C140.664 13.996 140.995 13.789 141.218 13.4838C141.458 13.1736 141.587 12.7915 141.584 12.3988C141.6 12.1395 141.557 11.8801 141.457 11.6404C141.357 11.4007 141.203 11.1872 141.008 11.0163C140.368 10.6239 139.616 10.4547 138.87 10.535H136.33V14.3151Z" fill="white"/>
<path d="M108.226 16.065C108.226 13.0375 109.067 10.6808 110.749 8.99501C112.442 7.30626 114.781 6.45752 117.792 6.45752C120.803 6.45752 123.247 7.28877 124.914 8.94252C126.581 10.5963 127.419 12.9325 127.419 15.9425C127.489 17.7809 127.115 19.6091 126.328 21.2713C125.615 22.6406 124.516 23.7695 123.168 24.5175C121.578 25.3368 119.806 25.7344 118.019 25.6725C116.235 25.733 114.461 25.3922 112.826 24.675C111.428 23.9744 110.27 22.8715 109.501 21.5075C108.598 19.8498 108.157 17.9787 108.226 16.0913V16.065ZM113.943 16.065C113.943 17.9375 114.292 19.285 114.982 20.0988C115.352 20.4825 115.795 20.7876 116.286 20.9959C116.776 21.2043 117.303 21.3117 117.836 21.3117C118.368 21.3117 118.895 21.2043 119.386 20.9959C119.876 20.7876 120.319 20.4825 120.69 20.0988C121.359 19.2938 121.696 17.8559 121.702 15.785C121.816 14.425 121.442 13.0688 120.646 11.9613C120.289 11.556 119.845 11.2364 119.348 11.0259C118.851 10.8154 118.314 10.7194 117.775 10.745C117.248 10.7266 116.724 10.828 116.241 11.0417C115.759 11.2553 115.331 11.5757 114.99 11.9788C114.292 12.7925 113.943 14.1488 113.943 16.0388V16.065Z" fill="white"/>
<path d="M86.7033 16.065C86.7033 13.0375 87.5441 10.6808 89.2257 8.99501C90.9073 7.30918 93.255 6.46335 96.2691 6.45752C99.3471 6.45752 101.721 7.28585 103.391 8.94252C105.061 10.5992 105.893 12.9325 105.887 15.9425C105.961 17.7813 105.587 19.6104 104.796 21.2713C104.086 22.6393 102.99 23.7681 101.645 24.5175C100.053 25.3383 98.2769 25.7359 96.4873 25.6725C94.7064 25.7338 92.9346 25.3929 91.3029 24.675C89.9048 23.9744 88.747 22.8715 87.9776 21.5075C87.0746 19.8498 86.6344 17.9787 86.7033 16.0913V16.065ZM92.4201 16.065C92.4201 17.9375 92.7692 19.285 93.4587 20.0988C93.8282 20.4822 94.271 20.7872 94.7606 20.9954C95.2502 21.2037 95.7765 21.311 96.3084 21.311C96.8402 21.311 97.3666 21.2037 97.8562 20.9954C98.3457 20.7872 98.7885 20.4822 99.158 20.0988C99.8388 19.2938 100.179 17.8559 100.179 15.785C100.293 14.425 99.9187 13.0688 99.1231 11.9613C98.7654 11.5565 98.3218 11.2372 97.825 11.0267C97.3281 10.8163 96.7905 10.72 96.2516 10.745C95.7248 10.7266 95.2005 10.828 94.7183 11.0417C94.2361 11.2553 93.8085 11.5757 93.4674 11.9788C92.7692 12.7925 92.4201 14.1488 92.4201 16.0388V16.065Z" fill="white"/>
<path d="M67.3882 6.75506H75.9328C77.3179 6.70311 78.699 6.93536 79.9913 7.43756C80.9927 7.87234 81.8734 8.54505 82.5573 9.39755C83.2444 10.28 83.7408 11.2961 84.0149 12.3813C84.324 13.5517 84.4766 14.7581 84.4687 15.9688C84.5375 17.5375 84.3095 19.1051 83.7967 20.5888C83.3845 21.6341 82.7432 22.573 81.9202 23.3363C81.1943 24.0313 80.3106 24.5388 79.3455 24.8151C78.2342 25.1296 77.0873 25.3002 75.9328 25.3226H67.4318V6.75506H67.3882ZM73.105 10.955V21.0963H74.5102C75.3817 21.1513 76.2546 21.0139 77.0675 20.6938C77.6139 20.3843 78.0341 19.8917 78.2545 19.3026C78.6012 18.2664 78.7493 17.1739 78.6909 16.0826C78.6909 14.1138 78.3679 12.7663 77.722 12.0488C77.3001 11.6485 76.7973 11.3438 76.2477 11.1551C75.6981 10.9664 75.1145 10.8982 74.5364 10.955H73.105Z" fill="white"/>
<path d="M45.813 6.77246H51.1545L58.1019 17.0275V6.77246H63.5045V25.34H58.1019L51.1981 15.1462V25.34H45.813V6.77246Z" fill="white"/>
<path d="M0 6.77246H17.4035V11.3575H11.5645V25.34H5.84772V11.3575H0V6.77246Z" fill="white"/>
<path d="M41.9378 25.4363V0H41.3792L20.6591 19.46L19.123 20.9038L14.8987 24.8762V25.4363H41.9552H41.9378ZM27.9731 20.0112L36.5265 11.9962V20.0112H27.9295H27.9731Z" fill="#9ACA3C"/>
<path d="M2.6529 32.879C2.9749 32.879 3.2514 32.8895 3.4824 32.9105C3.7204 32.9245 3.9374 32.949 4.1334 32.984C4.3294 33.012 4.5324 33.054 4.7424 33.11L4.6269 34.0865C4.4099 34.0725 4.2069 34.062 4.0179 34.055C3.8289 34.041 3.6259 34.0305 3.4089 34.0235C3.1989 34.0165 2.9469 34.013 2.6529 34.013C2.2469 34.013 1.9284 34.0935 1.6974 34.2545C1.4664 34.4155 1.3019 34.685 1.2039 35.063C1.1129 35.441 1.0674 35.9625 1.0674 36.6275C1.0674 37.2925 1.1129 37.814 1.2039 38.192C1.3019 38.57 1.4664 38.8395 1.6974 39.0005C1.9284 39.1615 2.2469 39.242 2.6529 39.242C3.1219 39.242 3.5139 39.235 3.8289 39.221C4.1509 39.2 4.4659 39.172 4.7739 39.137L4.8894 40.103C4.5674 40.201 4.2384 40.271 3.9024 40.313C3.5664 40.355 3.1499 40.376 2.6529 40.376C1.9249 40.376 1.3439 40.257 0.909896 40.019C0.475896 39.774 0.160896 39.3785 -0.0351035 38.8325C-0.224104 38.2865 -0.318604 37.5515 -0.318604 36.6275C-0.318604 35.7035 -0.224104 34.9685 -0.0351035 34.4225C0.160896 33.8765 0.475896 33.4845 0.909896 33.2465C1.3439 33.0015 1.9249 32.879 2.6529 32.879Z" fill="white"/>
<path d="M8.70172 32.9105C9.33172 32.9105 9.82872 32.977 10.1927 33.11C10.5637 33.243 10.8262 33.481 10.9802 33.824C11.1342 34.16 11.2112 34.629 11.2112 35.231C11.2112 35.84 11.1342 36.3125 10.9802 36.6485C10.8332 36.9845 10.5847 37.219 10.2347 37.352C9.89172 37.485 9.43322 37.5515 8.85922 37.5515C8.59322 37.5515 8.33072 37.5445 8.07172 37.5305C7.81272 37.5095 7.57122 37.4885 7.34722 37.4675V40.25H6.03472V33.005C6.31472 32.977 6.57722 32.956 6.82222 32.942C7.06722 32.928 7.33672 32.921 7.63072 32.921C7.92472 32.914 8.28172 32.9105 8.70172 32.9105ZM8.67022 33.9395C8.42522 33.9395 8.19072 33.9395 7.96672 33.9395C7.74272 33.9395 7.53622 33.943 7.34722 33.95V36.5225H8.67022C8.97822 36.5225 9.21972 36.4875 9.39472 36.4175C9.57672 36.3405 9.70272 36.211 9.77272 36.029C9.84972 35.84 9.88822 35.574 9.88822 35.231C9.88822 34.888 9.84972 34.6255 9.77272 34.4435C9.70272 34.2545 9.57672 34.125 9.39472 34.055C9.21972 33.978 8.97822 33.9395 8.67022 33.9395Z" fill="white"/>
<path d="M15.6044 33.005C15.7164 33.005 15.8144 33.0365 15.8984 33.0995C15.9824 33.1625 16.0419 33.2465 16.0769 33.3515L18.2714 40.25H16.9274L16.3079 38.1815H13.6094L13.0004 40.25H11.6564L13.8509 33.3515C13.8789 33.2465 13.9349 33.1625 14.0189 33.0995C14.1099 33.0365 14.2114 33.005 14.3234 33.005H15.6044ZM14.6489 34.664L13.9139 37.1525H16.0034L15.2684 34.664C15.2404 34.559 15.2124 34.4505 15.1844 34.3385C15.1564 34.2195 15.1319 34.1075 15.1109 34.0025H14.8169C14.7959 34.1075 14.7714 34.2195 14.7434 34.3385C14.7154 34.4505 14.6839 34.559 14.6489 34.664Z" fill="white"/>
<path d="M21.7117 32.921C22.3277 32.921 22.8177 32.977 23.1817 33.089C23.5527 33.194 23.8187 33.383 23.9797 33.656C24.1407 33.929 24.2212 34.314 24.2212 34.811C24.2212 35.329 24.1232 35.7245 23.9272 35.9975C23.7312 36.2705 23.4127 36.428 22.9717 36.47V36.512C23.5177 36.561 23.8992 36.75 24.1162 37.079C24.3402 37.408 24.4522 37.863 24.4522 38.444C24.4522 38.941 24.3682 39.326 24.2002 39.599C24.0392 39.872 23.7802 40.0645 23.4232 40.1765C23.0732 40.2815 22.6147 40.334 22.0477 40.334C21.6067 40.334 21.2217 40.3305 20.8927 40.3235C20.5707 40.3235 20.2697 40.3165 19.9897 40.3025C19.7167 40.2885 19.4332 40.271 19.1392 40.25V33.005C19.3982 32.977 19.6502 32.9595 19.8952 32.9525C20.1472 32.9385 20.4167 32.9315 20.7037 32.9315C20.9907 32.9245 21.3267 32.921 21.7117 32.921ZM21.6487 33.929C21.4107 33.929 21.1902 33.929 20.9872 33.929C20.7842 33.929 20.5952 33.929 20.4202 33.929V36.05H21.7642C22.2122 36.05 22.5237 35.98 22.6987 35.84C22.8737 35.693 22.9612 35.406 22.9612 34.979C22.9612 34.692 22.9192 34.475 22.8352 34.328C22.7582 34.174 22.6217 34.069 22.4257 34.013C22.2367 33.957 21.9777 33.929 21.6487 33.929ZM21.7747 36.9425H20.4202V39.326C20.8262 39.326 21.2952 39.326 21.8272 39.326C22.1562 39.326 22.4152 39.298 22.6042 39.242C22.7932 39.179 22.9262 39.067 23.0032 38.906C23.0872 38.745 23.1292 38.5105 23.1292 38.2025C23.1292 37.8665 23.0872 37.611 23.0032 37.436C22.9192 37.254 22.7792 37.128 22.5832 37.058C22.3872 36.981 22.1177 36.9425 21.7747 36.9425Z" fill="white"/>
<path d="M27.1067 33.005V35.8715H30.0047V33.005H31.3172V40.25H30.0047V36.9005H27.1067V40.25H25.7837V33.005H27.1067Z" fill="white"/>
<path d="M38.705 33.005V40.25H37.445V35.5355C37.445 35.2205 37.4695 34.916 37.5185 34.622H37.4555C37.4065 34.769 37.347 34.9195 37.277 35.0735C37.207 35.2275 37.137 35.371 37.067 35.504L34.2635 40.25H32.9615V33.005H34.2215V37.646C34.2215 37.807 34.2145 37.968 34.2005 38.129C34.1865 38.29 34.1725 38.4475 34.1585 38.6015H34.2005C34.2635 38.4545 34.33 38.3075 34.4 38.1605C34.477 38.0065 34.554 37.8595 34.631 37.7195L37.403 33.005H38.705Z" fill="white"/>
<path d="M42.927 32.921C43.543 32.921 44.033 32.977 44.397 33.089C44.768 33.194 45.034 33.383 45.195 33.656C45.356 33.929 45.4365 34.314 45.4365 34.811C45.4365 35.329 45.3385 35.7245 45.1425 35.9975C44.9465 36.2705 44.628 36.428 44.187 36.47V36.512C44.733 36.561 45.1145 36.75 45.3315 37.079C45.5555 37.408 45.6675 37.863 45.6675 38.444C45.6675 38.941 45.5835 39.326 45.4155 39.599C45.2545 39.872 44.9955 40.0645 44.6385 40.1765C44.2885 40.2815 43.83 40.334 43.263 40.334C42.822 40.334 42.437 40.3305 42.108 40.3235C41.786 40.3235 41.485 40.3165 41.205 40.3025C40.932 40.2885 40.6485 40.271 40.3545 40.25V33.005C40.6135 32.977 40.8655 32.9595 41.1105 32.9525C41.3625 32.9385 41.632 32.9315 41.919 32.9315C42.206 32.9245 42.542 32.921 42.927 32.921ZM42.864 33.929C42.626 33.929 42.4055 33.929 42.2025 33.929C41.9995 33.929 41.8105 33.929 41.6355 33.929V36.05H42.9795C43.4275 36.05 43.739 35.98 43.914 35.84C44.089 35.693 44.1765 35.406 44.1765 34.979C44.1765 34.692 44.1345 34.475 44.0505 34.328C43.9735 34.174 43.837 34.069 43.641 34.013C43.452 33.957 43.193 33.929 42.864 33.929ZM42.99 36.9425H41.6355V39.326C42.0415 39.326 42.5105 39.326 43.0425 39.326C43.3715 39.326 43.6305 39.298 43.8195 39.242C44.0085 39.179 44.1415 39.067 44.2185 38.906C44.3025 38.745 44.3445 38.5105 44.3445 38.2025C44.3445 37.8665 44.3025 37.611 44.2185 37.436C44.1345 37.254 43.9945 37.128 43.7985 37.058C43.6025 36.981 43.333 36.9425 42.99 36.9425Z" fill="white"/>
<path d="M50.1806 33.005C50.2926 33.005 50.3906 33.0365 50.4746 33.0995C50.5586 33.1625 50.6181 33.2465 50.6531 33.3515L52.8476 40.25H51.5036L50.8841 38.1815H48.1856L47.5766 40.25H46.2326L48.4271 33.3515C48.4551 33.2465 48.5111 33.1625 48.5951 33.0995C48.6861 33.0365 48.7876 33.005 48.8996 33.005H50.1806ZM49.2251 34.664L48.4901 37.1525H50.5796L49.8446 34.664C49.8166 34.559 49.7886 34.4505 49.7606 34.3385C49.7326 34.2195 49.7081 34.1075 49.6871 34.0025H49.3931C49.3721 34.1075 49.3476 34.2195 49.3196 34.3385C49.2916 34.4505 49.2601 34.559 49.2251 34.664Z" fill="white"/>
<path d="M56.0569 32.9105C56.4629 32.9105 56.8094 32.914 57.0964 32.921C57.3834 32.921 57.6494 32.928 57.8944 32.942C58.1394 32.956 58.3984 32.977 58.6714 33.005V40.25H57.3484V37.394C57.1804 37.394 56.9914 37.394 56.7814 37.394C56.5714 37.394 56.3334 37.394 56.0674 37.394C55.8434 37.394 55.6649 37.4465 55.5319 37.5515C55.3989 37.6495 55.2974 37.828 55.2274 38.087L54.6499 40.25H53.2534L53.8939 38.0345C53.9849 37.6845 54.1319 37.4325 54.3349 37.2785C54.5379 37.1175 54.7339 37.0195 54.9229 36.9845V36.9215C54.4189 36.8585 54.0654 36.6625 53.8624 36.3335C53.6594 35.9975 53.5579 35.5705 53.5579 35.0525C53.5579 34.2615 53.7539 33.7085 54.1459 33.3935C54.5379 33.0715 55.1749 32.9105 56.0569 32.9105ZM56.0464 36.365H57.3484V33.95C57.1664 33.943 56.9669 33.9395 56.7499 33.9395C56.5399 33.9395 56.3159 33.9395 56.0779 33.9395C55.6369 33.9395 55.3254 34.0235 55.1434 34.1915C54.9684 34.3525 54.8809 34.6675 54.8809 35.1365C54.8809 35.5495 54.9614 35.8575 55.1224 36.0605C55.2904 36.2635 55.5984 36.365 56.0464 36.365Z" fill="white"/>
<path d="M60.8861 38.8115C61.0541 38.8115 61.1696 38.843 61.2326 38.906C61.2956 38.969 61.3306 39.088 61.3376 39.263V39.935C61.3306 40.299 61.2851 40.6245 61.2011 40.9115C61.1241 41.1985 61.0121 41.4715 60.8651 41.7305L60.3296 41.5625C60.3786 41.3385 60.4136 41.125 60.4346 40.922C60.4556 40.726 60.4661 40.502 60.4661 40.25C60.2281 40.25 60.1056 40.117 60.0986 39.851L60.1091 39.263C60.1161 39.088 60.1546 38.969 60.2246 38.906C60.2946 38.843 60.4101 38.8115 60.5711 38.8115H60.8861Z" fill="white"/>
<path d="M67.6697 32.921C68.2857 32.921 68.7757 32.977 69.1397 33.089C69.5107 33.194 69.7767 33.383 69.9377 33.656C70.0987 33.929 70.1792 34.314 70.1792 34.811C70.1792 35.329 70.0812 35.7245 69.8852 35.9975C69.6892 36.2705 69.3707 36.428 68.9297 36.47V36.512C69.4757 36.561 69.8572 36.75 70.0742 37.079C70.2982 37.408 70.4102 37.863 70.4102 38.444C70.4102 38.941 70.3262 39.326 70.1582 39.599C69.9972 39.872 69.7382 40.0645 69.3812 40.1765C69.0312 40.2815 68.5727 40.334 68.0057 40.334C67.5647 40.334 67.1797 40.3305 66.8507 40.3235C66.5287 40.3235 66.2277 40.3165 65.9477 40.3025C65.6747 40.2885 65.3912 40.271 65.0972 40.25V33.005C65.3562 32.977 65.6082 32.9595 65.8532 32.9525C66.1052 32.9385 66.3747 32.9315 66.6617 32.9315C66.9487 32.9245 67.2847 32.921 67.6697 32.921ZM67.6067 33.929C67.3687 33.929 67.1482 33.929 66.9452 33.929C66.7422 33.929 66.5532 33.929 66.3782 33.929V36.05H67.7222C68.1702 36.05 68.4817 35.98 68.6567 35.84C68.8317 35.693 68.9192 35.406 68.9192 34.979C68.9192 34.692 68.8772 34.475 68.7932 34.328C68.7162 34.174 68.5797 34.069 68.3837 34.013C68.1947 33.957 67.9357 33.929 67.6067 33.929ZM67.7327 36.9425H66.3782V39.326C66.7842 39.326 67.2532 39.326 67.7852 39.326C68.1142 39.326 68.3732 39.298 68.5622 39.242C68.7512 39.179 68.8842 39.067 68.9612 38.906C69.0452 38.745 69.0872 38.5105 69.0872 38.2025C69.0872 37.8665 69.0452 37.611 68.9612 37.436C68.8772 37.254 68.7372 37.128 68.5412 37.058C68.3452 36.981 68.0757 36.9425 67.7327 36.9425Z" fill="white"/>
<path d="M74.3247 35.798C74.9548 35.798 75.4553 35.8715 75.8262 36.0185C76.1973 36.1585 76.4597 36.3965 76.6137 36.7325C76.7677 37.0615 76.8447 37.5095 76.8447 38.0765C76.8447 38.6645 76.7642 39.123 76.6032 39.452C76.4492 39.781 76.2007 40.012 75.8577 40.145C75.5217 40.271 75.0807 40.334 74.5347 40.334C74.1147 40.334 73.7507 40.3305 73.4427 40.3235C73.1347 40.3235 72.8512 40.3165 72.5922 40.3025C72.3332 40.2885 72.0602 40.271 71.7732 40.25H71.7417V33.005H73.0647V35.798H74.3247ZM79.3122 33.005V40.25H77.9997V33.005H79.3122ZM74.3247 36.7535H73.0647V39.2945C73.4287 39.3015 73.8487 39.305 74.3247 39.305C74.6467 39.305 74.8952 39.2735 75.0702 39.2105C75.2452 39.1405 75.3643 39.0145 75.4272 38.8325C75.4972 38.6505 75.5322 38.388 75.5322 38.045C75.5322 37.723 75.5007 37.4675 75.4378 37.2785C75.3747 37.0895 75.2557 36.9565 75.0807 36.8795C74.9057 36.7955 74.6537 36.7535 74.3247 36.7535Z" fill="white"/>
<path d="M83.5745 36.029C84.2185 36.029 84.726 36.099 85.097 36.239C85.475 36.372 85.741 36.596 85.895 36.911C86.056 37.226 86.1365 37.653 86.1365 38.192C86.1365 38.808 86.042 39.27 85.853 39.578C85.664 39.886 85.377 40.0925 84.992 40.1975C84.614 40.2955 84.1345 40.3445 83.5535 40.3445C83.0775 40.3445 82.64 40.3375 82.241 40.3235C81.842 40.3095 81.4255 40.285 80.9915 40.25H80.96V33.005C81.366 32.984 81.765 32.9665 82.157 32.9525C82.556 32.9385 82.948 32.9315 83.333 32.9315C83.739 32.9315 84.138 32.9385 84.53 32.9525C84.929 32.9665 85.3245 32.984 85.7165 33.005L85.601 34.0235H82.2725V36.029H83.5745ZM83.5745 36.9425H82.2725V39.3155C82.6505 39.3155 83.0845 39.3155 83.5745 39.3155C83.9105 39.3155 84.166 39.284 84.341 39.221C84.523 39.158 84.6455 39.0425 84.7085 38.8745C84.7785 38.7065 84.8135 38.4615 84.8135 38.1395C84.8135 37.8385 84.782 37.6005 84.719 37.4255C84.656 37.2505 84.5335 37.128 84.3515 37.058C84.1765 36.981 83.9175 36.9425 83.5745 36.9425Z" fill="white"/>
<path d="M93.143 33.005V40.25H91.883V35.5355C91.883 35.2205 91.9075 34.916 91.9565 34.622H91.8935C91.8445 34.769 91.785 34.9195 91.715 35.0735C91.645 35.2275 91.575 35.371 91.505 35.504L88.7015 40.25H87.3995V33.005H88.6595V37.646C88.6595 37.807 88.6525 37.968 88.6385 38.129C88.6245 38.29 88.6105 38.4475 88.5965 38.6015H88.6385C88.7015 38.4545 88.768 38.3075 88.838 38.1605C88.915 38.0065 88.992 37.8595 89.069 37.7195L91.841 33.005H93.143Z" fill="white"/>
<path d="M97.4595 32.9105C98.0895 32.9105 98.5865 32.977 98.9505 33.11C99.3215 33.243 99.584 33.481 99.738 33.824C99.892 34.16 99.969 34.629 99.969 35.231C99.969 35.84 99.892 36.3125 99.738 36.6485C99.591 36.9845 99.3425 37.219 98.9925 37.352C98.6495 37.485 98.191 37.5515 97.617 37.5515C97.351 37.5515 97.0885 37.5445 96.8295 37.5305C96.5705 37.5095 96.329 37.4885 96.105 37.4675V40.25H94.7925V33.005C95.0725 32.977 95.335 32.956 95.58 32.942C95.825 32.928 96.0945 32.921 96.3885 32.921C96.6825 32.914 97.0395 32.9105 97.4595 32.9105ZM97.428 33.9395C97.183 33.9395 96.9485 33.9395 96.7245 33.9395C96.5005 33.9395 96.294 33.943 96.105 33.95V36.5225H97.428C97.736 36.5225 97.9775 36.4875 98.1525 36.4175C98.3345 36.3405 98.4605 36.211 98.5305 36.029C98.6075 35.84 98.646 35.574 98.646 35.231C98.646 34.888 98.6075 34.6255 98.5305 34.4435C98.4605 34.2545 98.3345 34.125 98.1525 34.055C97.9775 33.978 97.736 33.9395 97.428 33.9395Z" fill="white"/>
<path d="M104.362 33.005C104.474 33.005 104.572 33.0365 104.656 33.0995C104.74 33.1625 104.8 33.2465 104.835 33.3515L107.029 40.25H105.685L105.066 38.1815H102.367L101.758 40.25H100.414L102.609 33.3515C102.637 33.2465 102.693 33.1625 102.777 33.0995C102.868 33.0365 102.969 33.005 103.081 33.005H104.362ZM103.407 34.664L102.672 37.1525H104.761L104.026 34.664C103.998 34.559 103.97 34.4505 103.942 34.3385C103.914 34.2195 103.89 34.1075 103.869 34.0025H103.575C103.554 34.1075 103.529 34.2195 103.501 34.3385C103.473 34.4505 103.442 34.559 103.407 34.664Z" fill="white"/>
<path d="M109.231 33.005V36.008H110.701C110.736 35.217 110.851 34.594 111.047 34.139C111.25 33.677 111.551 33.3515 111.95 33.1625C112.356 32.9665 112.881 32.8685 113.525 32.8685C114.267 32.8685 114.855 32.984 115.289 33.215C115.73 33.439 116.045 33.824 116.234 34.37C116.43 34.916 116.528 35.6685 116.528 36.6275C116.528 37.5865 116.43 38.339 116.234 38.885C116.045 39.431 115.73 39.8195 115.289 40.0505C114.855 40.2745 114.267 40.3865 113.525 40.3865C112.853 40.3865 112.314 40.285 111.908 40.082C111.502 39.872 111.201 39.5185 111.005 39.0215C110.816 38.5245 110.711 37.842 110.69 36.974H109.231V40.25H107.908V33.005H109.231ZM113.525 33.9395C113.133 33.9395 112.822 34.02 112.591 34.181C112.367 34.342 112.209 34.6185 112.118 35.0105C112.027 35.4025 111.982 35.9415 111.982 36.6275C111.982 37.3135 112.027 37.8525 112.118 38.2445C112.209 38.6365 112.367 38.913 112.591 39.074C112.822 39.235 113.133 39.3155 113.525 39.3155C113.938 39.3155 114.26 39.235 114.491 39.074C114.729 38.913 114.897 38.6365 114.995 38.2445C115.093 37.8525 115.142 37.3135 115.142 36.6275C115.142 35.9415 115.093 35.4025 114.995 35.0105C114.897 34.6185 114.729 34.342 114.491 34.181C114.26 34.02 113.938 33.9395 113.525 33.9395Z" fill="white"/>
<path d="M123 33.005V34.076H120.753V40.25H119.44V34.076H117.193V33.005H123Z" fill="white"/>
<path d="M127.657 33.005V35.8715H130.555V33.005H131.867V40.25H130.555V36.9005H127.657V40.25H126.334V33.005H127.657Z" fill="white"/>
<path d="M136.693 33.005C136.805 33.005 136.903 33.0365 136.987 33.0995C137.071 33.1625 137.13 33.2465 137.165 33.3515L139.36 40.25H138.016L137.396 38.1815H134.698L134.089 40.25H132.745L134.939 33.3515C134.967 33.2465 135.023 33.1625 135.107 33.0995C135.198 33.0365 135.3 33.005 135.412 33.005H136.693ZM135.737 34.664L135.002 37.1525H137.092L136.357 34.664C136.329 34.559 136.301 34.4505 136.273 34.3385C136.245 34.2195 136.22 34.1075 136.199 34.0025H135.905C135.884 34.1075 135.86 34.2195 135.832 34.3385C135.804 34.4505 135.772 34.559 135.737 34.664Z" fill="white"/>
<path d="M142.885 32.879C143.207 32.879 143.484 32.8895 143.715 32.9105C143.953 32.9245 144.17 32.949 144.366 32.984C144.562 33.012 144.765 33.054 144.975 33.11L144.859 34.0865C144.642 34.0725 144.439 34.062 144.25 34.055C144.061 34.041 143.858 34.0305 143.641 34.0235C143.431 34.0165 143.179 34.013 142.885 34.013C142.479 34.013 142.161 34.0935 141.93 34.2545C141.699 34.4155 141.534 34.685 141.436 35.063C141.345 35.441 141.3 35.9625 141.3 36.6275C141.3 37.2925 141.345 37.814 141.436 38.192C141.534 38.57 141.699 38.8395 141.93 39.0005C142.161 39.1615 142.479 39.242 142.885 39.242C143.354 39.242 143.746 39.235 144.061 39.221C144.383 39.2 144.698 39.172 145.006 39.137L145.122 40.103C144.8 40.201 144.471 40.271 144.135 40.313C143.799 40.355 143.382 40.376 142.885 40.376C142.157 40.376 141.576 40.257 141.142 40.019C140.708 39.774 140.393 39.3785 140.197 38.8325C140.008 38.2865 139.914 37.5515 139.914 36.6275C139.914 35.7035 140.008 34.9685 140.197 34.4225C140.393 33.8765 140.708 33.4845 141.142 33.2465C141.576 33.0015 142.157 32.879 142.885 32.879Z" fill="white"/>
<path d="M147.601 32.9525V35.945L147.475 37.982H146.467L146.33 35.945V32.9525H147.601ZM147.128 38.8115C147.296 38.8115 147.412 38.843 147.475 38.906C147.545 38.969 147.58 39.088 147.58 39.263V39.788C147.58 39.963 147.545 40.0855 147.475 40.1555C147.412 40.2185 147.296 40.25 147.128 40.25H146.813C146.645 40.25 146.526 40.2185 146.456 40.1555C146.393 40.0855 146.362 39.963 146.362 39.788V39.263C146.362 39.088 146.393 38.969 146.456 38.906C146.526 38.843 146.645 38.8115 146.813 38.8115H147.128Z" fill="white"/>
</g>
<defs>
<clipPath id="clip0">
<rect width="148.75" height="42" fill="white"/>
</clipPath>
</defs>
</svg>
