<svg width="14" height="11" viewBox="0 0 14 11" fill="none" xmlns="http://www.w3.org/2000/svg">
<path d="M5.04382 10.4392L0.146484 5.8479L0.915914 5.02714L5.01858 8.87337L13.0709 0.821045L13.8665 1.61649L5.04382 10.4392V10.4392Z" fill="#8F96B0"/>
</svg>
