<svg width="25" height="24" viewBox="0 0 25 24"  xmlns="http://www.w3.org/2000/svg">
<path d="M23.8123 11.25H4.25414L8.75391 6.75023L7.69327 5.68959L1.38281 12L7.69327 18.3105L8.75391 17.2499L4.25405 12.75H23.8123V11.25Z"/>
</svg>
