<svg width="16" height="16" viewBox="0 0 16 16"  xmlns="http://www.w3.org/2000/svg">
<path d="M14.75 3H12V1.25H11V3H5V1.25H4V3H1.25C1.05116 3.00023 0.860528 3.07932 0.719926 3.21993C0.579324 3.36053 0.500232 3.55116 0.5 3.75V14.25C0.500232 14.4488 0.579324 14.6395 0.719926 14.7801C0.860528 14.9207 1.05116 14.9998 1.25 15H14.75C14.9488 14.9998 15.1395 14.9207 15.2801 14.7801C15.4207 14.6395 15.4998 14.4488 15.5 14.25V3.75C15.4998 3.55116 15.4207 3.36053 15.2801 3.21993C15.1395 3.07932 14.9488 3.00023 14.75 3ZM14.5 14H1.5V4H4V5.25H5V4H11V5.25H12V4H14.5V14Z" />
<path d="M3.5 7H4.5V8H3.5V7Z" />
<path d="M6.25 7H7.25V8H6.25V7Z" />
<path d="M8.75 7H9.75V8H8.75V7Z" />
<path d="M11.5 7H12.5V8H11.5V7Z" />
<path d="M3.5 9.25H4.5V10.25H3.5V9.25Z" />
<path d="M6.25 9.25H7.25V10.25H6.25V9.25Z" />
<path d="M8.75 9.25H9.75V10.25H8.75V9.25Z" />
<path d="M11.5 9.25H12.5V10.25H11.5V9.25Z" />
<path d="M3.5 11.5H4.5V12.5H3.5V11.5Z" />
<path d="M6.25 11.5H7.25V12.5H6.25V11.5Z" />
<path d="M8.75 11.5H9.75V12.5H8.75V11.5Z" />
<path d="M11.5 11.5H12.5V12.5H11.5V11.5Z" />
</svg>
