<svg width="110" height="110" viewBox="0 0 110 110" fill="none" xmlns="http://www.w3.org/2000/svg">
<g filter="url(#filter0_d)">
<rect x="15" y="10" width="80" height="80" rx="40" fill="white"/>
<g filter="url(#filter1_d)">
<path fill-rule="evenodd" clip-rule="evenodd" d="M51.1048 61.9395H58.9798V63.8871H51.1048V61.9395ZM54.0685 57.0282H55.9314V59.9072H54.0685V57.0282ZM47.0403 47.1209V36.1129H62.9597V47.1209C62.9597 51.3548 59.4032 54.9959 54.9153 54.9959C50.6814 54.9959 47.0403 51.3548 47.0403 47.1209ZM64.9919 47.7137V38.0605H68.8871C68.8871 41.1935 69.3105 43.3951 67.7016 45.5968C67.4476 46.0201 66.9395 46.4435 66.5161 46.7822C66.2621 46.9516 66.0927 47.1209 65.754 47.2903L64.9073 47.7137H64.9919ZM41.0282 42.125V38.1451H44.9234V47.7984C44.246 47.4597 44.1613 47.4597 43.3992 46.9516C43.0605 46.6976 42.3831 46.1048 42.2137 45.7661C41.621 44.9193 41.0282 43.6492 41.0282 42.2097V42.125ZM44.9234 36.0282H38.9113V42.2097C38.9113 44.1572 39.8427 46.1048 40.7742 47.2056C41.2823 47.7984 41.9597 48.3911 42.6371 48.8145C45.4314 50.508 44.9234 48.9839 45.6855 50.8468C45.8548 51.3548 46.0242 51.6089 46.2782 52.0322C47.125 53.3871 48.3105 54.7419 49.6653 55.504L51.3589 56.3508C51.6129 56.4355 51.8669 56.4355 51.8669 56.7742V59.9919H48.9032V63.9718H46.871V66.004H62.9597V63.9718H60.9274V59.9919H57.9637V56.7742C57.9637 56.4355 58.3871 56.4355 59.0645 56.1814C59.7419 55.9274 60.5887 55.3347 61.1814 54.9113C61.6895 54.5726 62.1976 54.1492 62.5363 53.6411C63.2984 52.625 64.0605 51.7782 64.4839 50.4234C64.7379 49.7459 64.5685 50 65.5 49.6613L67.2782 48.8145C69.3105 47.5443 71.004 45.004 71.004 42.2097V36.0282H64.9919V34.0806H45.0081V36.0282H44.9234Z" fill="#9ACA3C"/>
<path fill-rule="evenodd" clip-rule="evenodd" d="M53.8992 40.1774V50.0847H56.0161V39.9234H54.1532C53.8992 39.9234 53.8992 40.0081 53.8992 40.1774Z" fill="#9ACA3C"/>
</g>
</g>
<defs>
<filter id="filter0_d" x="0" y="0" width="110" height="110" filterUnits="userSpaceOnUse" color-interpolation-filters="sRGB">
<feFlood flood-opacity="0" result="BackgroundImageFix"/>
<feColorMatrix in="SourceAlpha" type="matrix" values="0 0 0 0 0 0 0 0 0 0 0 0 0 0 0 0 0 0 127 0" result="hardAlpha"/>
<feOffset dy="5"/>
<feGaussianBlur stdDeviation="7.5"/>
<feColorMatrix type="matrix" values="0 0 0 0 0.560784 0 0 0 0 0.588235 0 0 0 0 0.690196 0 0 0 0.3 0"/>
<feBlend mode="normal" in2="BackgroundImageFix" result="effect1_dropShadow"/>
<feBlend mode="normal" in="SourceGraphic" in2="effect1_dropShadow" result="shape"/>
</filter>
<filter id="filter1_d" x="19" y="19" width="72" height="72" filterUnits="userSpaceOnUse" color-interpolation-filters="sRGB">
<feFlood flood-opacity="0" result="BackgroundImageFix"/>
<feColorMatrix in="SourceAlpha" type="matrix" values="0 0 0 0 0 0 0 0 0 0 0 0 0 0 0 0 0 0 127 0" result="hardAlpha"/>
<feOffset dy="5"/>
<feGaussianBlur stdDeviation="7.5"/>
<feColorMatrix type="matrix" values="0 0 0 0 0.603922 0 0 0 0 0.792157 0 0 0 0 0.235294 0 0 0 0.3 0"/>
<feBlend mode="normal" in2="BackgroundImageFix" result="effect1_dropShadow"/>
<feBlend mode="normal" in="SourceGraphic" in2="effect1_dropShadow" result="shape"/>
</filter>
</defs>
</svg>
