<svg width="42" height="42" viewBox="0 0 42 42"  xmlns="http://www.w3.org/2000/svg">
<g clip-path="url(#clip0)">
<rect opacity="0.2" x="42" y="42" width="42" height="42" transform="rotate(-180 42 42)" fill="#8F96B0"/>
<path d="M24.5 12.25L15.75 21L24.5 29.75L24.5 12.25Z" />
</g>
<defs>
<clipPath id="clip0">
<rect x="42" y="42" width="42" height="42" rx="6" transform="rotate(-180 42 42)" fill="white"/>
</clipPath>
</defs>
</svg>
