<svg width="24" height="22" viewBox="0 0 24 22" fill="none" xmlns="http://www.w3.org/2000/svg">
<path d="M21.2401 2.70364C20.6827 2.14622 20.0209 1.70411 19.2925 1.40258C18.5642 1.10104 17.7835 0.945993 16.9952 0.946289C16.2069 0.946586 15.4264 1.10222 14.6983 1.4043C13.9701 1.70639 13.3087 2.14899 12.7517 2.70683L12.0246 3.44277L11.3036 2.70842L11.2989 2.70374C10.7417 2.14658 10.0803 1.70462 9.35232 1.40309C8.62437 1.10156 7.84415 0.94636 7.05621 0.94636C6.26828 0.94636 5.48806 1.10156 4.7601 1.40309C4.03215 1.70462 3.37071 2.14658 2.81356 2.70374L2.48965 3.02764C1.36444 4.15286 0.7323 5.67898 0.7323 7.27028C0.7323 8.86157 1.36444 10.3877 2.48965 11.5129L11.0384 20.0615L12.0038 21.073L12.0268 21.05L12.0518 21.0749L12.9563 20.1206L21.564 11.5128C22.6876 10.3867 23.3185 8.86087 23.3185 7.27013C23.3185 5.6794 22.6876 4.15361 21.564 3.0275L21.2401 2.70364Z" fill="#9ACA3C"/>
</svg>
