<svg width="18" height="18" viewBox="0 0 18 18"  xmlns="http://www.w3.org/2000/svg">
<path d="M4.12626 10.2423L8.52635 17.1149C8.57723 17.1944 8.64729 17.2598 8.73007 17.3051C8.81286 17.3504 8.90571 17.3741 9.00008 17.3741C9.09444 17.3741 9.1873 17.3504 9.27008 17.3051C9.35287 17.2598 9.42293 17.1944 9.47381 17.1149L13.874 10.2422C14.6368 9.20737 15.0468 7.95472 15.0434 6.6691C15.0434 3.33682 12.3324 0.625742 9.00008 0.625741C5.66772 0.625741 2.95672 3.33675 2.95672 6.6691C2.95332 7.95476 3.36334 9.20744 4.12626 10.2423ZM9.00008 1.75074C11.712 1.75074 13.9184 3.95708 13.9184 6.6691C13.9213 7.72051 13.5844 8.74472 12.9579 9.58911C12.9505 9.59923 12.9433 9.60959 12.9366 9.62019L9.00008 15.7684L5.06374 9.62015C5.05699 9.60953 5.04986 9.59917 5.04236 9.58907C4.41583 8.74471 4.07888 7.72052 4.08172 6.6691C4.08172 3.95711 6.28813 1.75074 9.00008 1.75074Z" />
<path fill-rule="evenodd" clip-rule="evenodd" d="M9.00024 8.62488C10.0358 8.62488 10.8752 7.78541 10.8752 6.74988C10.8752 5.71434 10.0358 4.87488 9.00024 4.87488C7.96471 4.87488 7.12524 5.71434 7.12524 6.74988C7.12524 7.78541 7.96471 8.62488 9.00024 8.62488ZM9.00024 9.74988C10.6571 9.74988 12.0002 8.40673 12.0002 6.74988C12.0002 5.09302 10.6571 3.74988 9.00024 3.74988C7.34339 3.74988 6.00024 5.09302 6.00024 6.74988C6.00024 8.40673 7.34339 9.74988 9.00024 9.74988Z" />
</svg>
