<svg width="19" height="18" viewBox="0 0 19 18" fill="none" xmlns="http://www.w3.org/2000/svg">
<path d="M3.45022 16.5938C3.44853 16.8155 3.53486 17.0288 3.69025 17.187C3.84565 17.3452 4.05744 17.4353 4.27917 17.4375H13.8713C14.093 17.4353 14.3048 17.3452 14.4602 17.187C14.6156 17.0288 14.7019 16.8155 14.7002 16.5938V5.34375H3.45022V16.5938ZM4.57522 6.46875H13.5752V16.3125H4.57522V6.46875Z" fill="#8F96B0"/>
<path d="M5.98145 7.59375H7.10645V14.625H5.98145V7.59375Z" fill="#8F96B0"/>
<path d="M8.5127 7.59375H9.6377V14.625H8.5127V7.59375Z" fill="#8F96B0"/>
<path d="M11.0439 7.59375H12.1689V14.625H11.0439V7.59375Z" fill="#8F96B0"/>
<path d="M11.6064 3.09375V1.40625C11.6064 0.933117 11.2729 0.5625 10.8471 0.5625H7.30332C6.87751 0.5625 6.54395 0.933117 6.54395 1.40625V3.09375H2.3252V4.21875H15.8252V3.09375H11.6064ZM7.66895 1.6875H10.4814V3.09375H7.66895V1.6875Z" fill="#8F96B0"/>
</svg>
