<svg width="25" height="24" viewBox="0 0 25 24" fill="none" xmlns="http://www.w3.org/2000/svg">
<g clip-path="url(#clip0_7768_17501)">
<path d="M10.9103 11.0459L8.00361 8.13919L4.33447 11.8081L7.24114 14.7149L7.23927 14.7167L10.3779 17.8553L10.9101 18.3839L10.912 18.3857L14.0506 15.2471L14.5791 14.7149L24.0608 5.23341L20.3918 1.56445L10.9103 11.0459ZM12.9883 14.1846L12.4598 14.7167L10.9103 16.2662L10.9084 16.2644L9.36074 14.7167L9.36261 14.7149L6.45594 11.8081L8.00357 10.2605L10.9103 13.1672L20.3918 3.68573L21.9395 5.23341L12.9883 14.1846Z" fill="#BDC0CF"/>
<path d="M21.5 21.75H2.75V3H16.8228L18.3228 1.5H1.25V23.25H23V8.39508L21.5 9.89508V21.75Z" fill="#BDC0CF"/>
</g>
<defs>
<clipPath id="clip0_7768_17501">
<rect width="24" height="24" fill="white" transform="translate(0.5)"/>
</clipPath>
</defs>
</svg>
