<svg width="14" height="16" viewBox="0 0 14 16" fill="none" xmlns="http://www.w3.org/2000/svg">
<path d="M13.6667 15.3343H0.333374V12.6676H13.6667V15.3343ZM7.70671 2.79431L10.2067 5.29431L4.16671 11.3343H1.66671V8.83431L7.70671 2.79431ZM10.92 4.58098L8.42004 2.08098L9.64004 0.860978C9.70172 0.799176 9.77497 0.750144 9.85562 0.71669C9.93627 0.683236 10.0227 0.666016 10.11 0.666016C10.1974 0.666016 10.2838 0.683236 10.3645 0.71669C10.4451 0.750144 10.5184 0.799176 10.58 0.860978L12.14 2.42098C12.4 2.68098 12.4 3.10098 12.14 3.36098L10.92 4.58098Z" fill="#8F96B0"/>
</svg>
