<svg width="24" height="24" viewBox="0 0 24 24"  xmlns="http://www.w3.org/2000/svg">
<path d="M6.4218 8.03453V15.3439C6.4218 15.7659 6.21986 15.977 5.81597 15.977H4.8907C4.70712 15.977 4.56759 15.9348 4.47213 15.8504C4.38401 15.7583 4.29589 15.624 4.20777 15.4475L2.10388 11.2691C2.01576 11.1002 1.92764 10.9084 1.83952 10.6935C1.75874 10.4787 1.68898 10.2715 1.63023 10.0719H1.50907C1.56047 10.5017 1.58617 10.9161 1.58617 11.3151V15.977H0V8.66763C0 8.24556 0.201943 8.03453 0.60583 8.03453H1.52008C1.69632 8.03453 1.82851 8.08058 1.91663 8.17266C2.01209 8.25707 2.10388 8.38369 2.192 8.55252L4.2298 12.6043C4.31792 12.7808 4.40971 12.9803 4.50517 13.2029C4.60064 13.4177 4.69243 13.6365 4.78055 13.859H4.91273C4.8907 13.6365 4.87234 13.4177 4.85766 13.2029C4.85031 12.9803 4.84664 12.7578 4.84664 12.5353V8.03453H6.4218Z" />
<path d="M9.50276 8C10.0976 8 10.7144 8.00767 11.3533 8.02302C11.9922 8.0307 12.576 8.06139 13.1047 8.11511L13.0276 9.39281H10.1086C9.74142 9.39281 9.55783 9.58849 9.55783 9.97986V11.223H12.62V12.4662H9.55783V14.0317C9.55783 14.423 9.74142 14.6187 10.1086 14.6187H13.0276L13.1047 15.8964C12.576 15.9501 11.9922 15.9808 11.3533 15.9885C10.7144 15.9962 10.0976 16 9.50276 16C9.01809 16 8.62522 15.858 8.32414 15.5741C8.02306 15.2825 7.87252 14.895 7.87252 14.4115V9.6C7.87252 9.11655 8.02306 8.72902 8.32414 8.43741C8.62522 8.1458 9.01809 8 9.50276 8Z" />
<path d="M24 8.03453L22.7553 15.4935C22.7333 15.6393 22.6635 15.7583 22.546 15.8504C22.4359 15.9348 22.3073 15.977 22.1605 15.977H20.5963C20.4421 15.977 20.3063 15.9348 20.1888 15.8504C20.0786 15.7583 20.0162 15.6355 20.0015 15.482L19.1423 10.3022C19.113 10.1333 19.0873 9.96451 19.0652 9.79568C19.0506 9.61918 19.0322 9.44652 19.0102 9.2777H18.8009C18.7788 9.44652 18.7568 9.61918 18.7348 9.79568C18.7201 9.97218 18.7017 10.1448 18.6797 10.3137L17.8315 15.482C17.8095 15.6355 17.7398 15.7583 17.6223 15.8504C17.5121 15.9348 17.3836 15.977 17.2367 15.977H15.6616C15.5074 15.977 15.3752 15.9348 15.265 15.8504C15.1549 15.7583 15.0888 15.6393 15.0668 15.4935L13.8221 8.03453H15.5074L16.3004 13.5597C16.3151 13.7362 16.3298 13.9204 16.3445 14.1122C16.3665 14.2964 16.3849 14.4959 16.3996 14.7108H16.6089C16.6382 14.5266 16.6676 14.3348 16.697 14.1353C16.7264 13.9357 16.7557 13.7439 16.7851 13.5597L17.6333 8.56403C17.648 8.41055 17.7104 8.28393 17.8205 8.18417C17.9307 8.08441 18.0629 8.03453 18.2171 8.03453H19.605C19.7592 8.03453 19.8877 8.08441 19.9905 8.18417C20.1007 8.28393 20.1667 8.41055 20.1888 8.56403L21.0369 13.5712C21.0663 13.7554 21.0957 13.9472 21.1251 14.1468C21.1544 14.3386 21.1801 14.5266 21.2022 14.7108H21.4225C21.4372 14.5266 21.4518 14.3386 21.4665 14.1468C21.4812 13.9472 21.4996 13.7592 21.5216 13.5827L22.3147 8.03453H24Z" />
</svg>
