<svg width="26" height="22" viewBox="0 0 26 22" xmlns="http://www.w3.org/2000/svg">
<path d="M5.25061 0C6.55799 0 7.59124 0.205703 8.35036 0.61711C9.13058 1.02852 9.68937 1.69705 10.0268 2.62272C10.3642 3.54839 10.5328 4.78261 10.5328 6.32538C10.5328 7.86816 10.3642 9.10238 10.0268 10.028C9.68937 10.9537 9.13058 11.6223 8.35036 12.0337C7.59124 12.4451 6.55799 12.6508 5.25061 12.6508C3.94323 12.6508 2.89943 12.4451 2.11922 12.0337C1.3601 11.6223 0.811841 10.9537 0.474453 10.028C0.158151 9.10238 0 7.86816 0 6.32538C0 4.78261 0.158151 3.54839 0.474453 2.62272C0.811841 1.69705 1.3601 1.02852 2.11922 0.61711C2.89943 0.205703 3.94323 0 5.25061 0ZM20.9708 0.401121L7.43309 21.6914H4.93431L18.472 0.401121H20.9708ZM5.25061 2.15989C4.32279 2.15989 3.69019 2.44787 3.3528 3.02384C3.01541 3.59981 2.84672 4.70033 2.84672 6.32538C2.84672 7.97101 3.01541 9.08181 3.3528 9.65778C3.69019 10.2132 4.32279 10.4909 5.25061 10.4909C5.86212 10.4909 6.34712 10.3777 6.7056 10.1515C7.06407 9.90463 7.30657 9.48294 7.43309 8.8864C7.5807 8.26928 7.6545 7.41561 7.6545 6.32538C7.6545 4.70033 7.48581 3.59981 7.14842 3.02384C6.81103 2.44787 6.17843 2.15989 5.25061 2.15989ZM20.7178 9.38008C22.0251 9.38008 23.0584 9.58579 23.8175 9.99719C24.5977 10.4086 25.1565 11.0771 25.4939 12.0028C25.8313 12.9285 26 14.1524 26 15.6746C26 17.2174 25.8313 18.4516 25.4939 19.3773C25.1565 20.3029 24.5977 20.9715 23.8175 21.3829C23.0584 21.7943 22.0251 22 20.7178 22C19.4104 22 18.3771 21.7943 17.618 21.3829C16.8589 20.9715 16.3106 20.3029 15.9732 19.3773C15.6358 18.4516 15.4672 17.2174 15.4672 15.6746C15.4672 13.3707 15.8467 11.7457 16.6058 10.7994C17.3861 9.8532 18.7567 9.38008 20.7178 9.38008ZM20.6861 11.5091C20.0746 11.5091 19.5896 11.6325 19.2311 11.8794C18.8938 12.1057 18.6513 12.5273 18.5036 13.1445C18.3771 13.741 18.3139 14.5844 18.3139 15.6746C18.3139 16.7854 18.3771 17.6494 18.5036 18.2665C18.6513 18.863 18.8938 19.2847 19.2311 19.5316C19.5896 19.7578 20.0746 19.871 20.6861 19.871C21.635 19.871 22.2782 19.583 22.6156 19.007C22.953 18.431 23.1217 17.3202 23.1217 15.6746C23.1217 14.5844 23.0478 13.741 22.9002 13.1445C22.7526 12.5273 22.4996 12.1057 22.1411 11.8794C21.8037 11.6325 21.3187 11.5091 20.6861 11.5091Z" />
</svg>
