<svg width="24" height="24" viewBox="0 0 24 24"  xmlns="http://www.w3.org/2000/svg">
<path fill-rule="evenodd" clip-rule="evenodd" d="M14.806 2.44345L11.9999 0L9.19387 2.44345L5.51224 1.90496L4.47266 5.47759L1.08434 7.01502L2.14131 10.5825L0.12207 13.7078L2.93999 16.1375L2.93093 19.8583L6.61515 20.3789L8.61914 23.5139L11.9999 21.96L15.3807 23.5139L17.3847 20.3789L21.0689 19.8583L21.0599 16.1375L23.8778 13.7078L21.8585 10.5825L22.9155 7.01502L19.5272 5.47759L18.4876 1.90496L14.806 2.44345ZM17.4123 3.5782L14.3409 4.02744L11.9999 1.98899L9.65897 4.02744L6.58757 3.5782L5.7203 6.55867L2.89359 7.84128L3.77536 10.8175L2.09081 13.4247L4.44167 15.4517L4.43411 18.5558L7.50767 18.9901L9.1795 21.6055L11.9999 20.3091L14.8204 21.6055L16.4922 18.9901L19.5657 18.5558L19.5582 15.4517L21.909 13.4247L20.2245 10.8175L21.1063 7.84128L18.2796 6.55867L17.4123 3.5782Z" />
<path fill-rule="evenodd" clip-rule="evenodd" d="M8.42042 15.7562L14.3556 7.3767L15.5797 8.2437L9.64448 16.6232L8.42042 15.7562Z" />
<path fill-rule="evenodd" clip-rule="evenodd" d="M14.5 13.75C14.0858 13.75 13.75 14.0858 13.75 14.5C13.75 14.9142 14.0858 15.25 14.5 15.25C14.9142 15.25 15.25 14.9142 15.25 14.5C15.25 14.0858 14.9142 13.75 14.5 13.75ZM12.25 14.5C12.25 13.2574 13.2574 12.25 14.5 12.25C15.7426 12.25 16.75 13.2574 16.75 14.5C16.75 15.7426 15.7426 16.75 14.5 16.75C13.2574 16.75 12.25 15.7426 12.25 14.5Z" />
<path fill-rule="evenodd" clip-rule="evenodd" d="M9.5 8.75C9.08579 8.75 8.75 9.08579 8.75 9.5C8.75 9.91421 9.08579 10.25 9.5 10.25C9.91421 10.25 10.25 9.91421 10.25 9.5C10.25 9.08579 9.91421 8.75 9.5 8.75ZM7.25 9.5C7.25 8.25736 8.25736 7.25 9.5 7.25C10.7426 7.25 11.75 8.25736 11.75 9.5C11.75 10.7426 10.7426 11.75 9.5 11.75C8.25736 11.75 7.25 10.7426 7.25 9.5Z" />
</svg>
