<svg width="24" height="24" viewBox="0 0 24 24"  xmlns="http://www.w3.org/2000/svg">
<path d="M22.7061 3.42859L1.28233 3.42859L1.28233 20.5714L22.7061 20.5714L22.7061 3.42859ZM21.2775 19.1429L12.9441 19.1429L12.9441 4.85716L21.2775 4.85716L21.2775 19.1429ZM2.71091 4.85716L11.5156 4.85716L11.5156 19.1429L2.7109 19.1429L2.71091 4.85716Z"/>
</svg>
