<svg width="24" height="24" viewBox="0 0 24 24" xmlns="http://www.w3.org/2000/svg">
<path d="M23.25 12.002C23.25 5.7888 18.2132 0.751983 12 0.751983C5.78677 0.751983 0.75 5.78879 0.75 12.002C0.749999 18.2152 5.78681 23.252 12 23.252C18.2132 23.252 23.25 18.2152 23.25 12.002ZM5.10572 18.8963C3.40135 17.1867 2.3945 14.9038 2.28137 12.4925C2.16824 10.0811 2.95692 7.71399 4.49375 5.85237C6.03058 3.99074 8.20545 2.76797 10.5946 2.42231C12.9837 2.07664 15.416 2.63285 17.4174 3.98256C19.4189 5.33226 20.8461 7.37877 21.4211 9.72331C21.996 12.0679 21.6775 14.5425 20.5276 16.665C19.3776 18.7875 17.4787 20.4059 15.2007 21.2048C12.9227 22.0036 10.4288 21.9258 8.20509 20.9864C7.04646 20.4968 5.99388 19.7869 5.10572 18.8963Z"/>
<path d="M16.268 12.7808L17.3286 11.7201L11.9998 6.39127L6.67104 11.7201L7.73167 12.7808L11.2498 9.26259L11.2498 18.0488L12.7498 18.0488L12.7498 9.26259L16.268 12.7808Z"/>
</svg>
