<svg width="24" height="24" viewBox="0 0 24 24"  xmlns="http://www.w3.org/2000/svg">
<path d="M17.6152 16.2871L14.8448 14.5121L15.8893 12.6246C16.1328 12.1838 16.2605 11.6899 16.2609 11.188V8.2C16.2609 7.08609 15.812 6.0178 15.0129 5.23015C14.2138 4.4425 13.1301 4 12 4C10.8699 4 9.78618 4.4425 8.98711 5.23015C8.18805 6.0178 7.73913 7.08609 7.73913 8.2V11.188C7.73951 11.6899 7.86726 12.1838 8.11074 12.6246L9.15523 14.5121L6.38479 16.2871C5.95901 16.5588 5.60915 16.9314 5.36723 17.3708C5.12531 17.8103 4.99905 18.3025 5.00001 18.8025V22H19V18.8025C19.001 18.3025 18.8747 17.8103 18.6328 17.3708C18.3909 16.9314 18.041 16.5588 17.6152 16.2871ZM17.7826 20.8H6.2174V18.8025C6.21683 18.5025 6.29259 18.2071 6.43775 17.9435C6.58291 17.6798 6.79283 17.4562 7.0483 17.2932L10.7637 14.9127L9.1795 12.05C9.03341 11.7855 8.95676 11.4892 8.95652 11.188V8.2C8.95652 7.40435 9.27718 6.64129 9.84794 6.07868C10.4187 5.51607 11.1928 5.2 12 5.2C12.8072 5.2 13.5813 5.51607 14.1521 6.07868C14.7228 6.64129 15.0435 7.40435 15.0435 8.2V11.188C15.0432 11.4892 14.9666 11.7855 14.8205 12.0499L13.2364 14.9128L16.9518 17.2932C17.2073 17.4563 17.4172 17.6798 17.5623 17.9435C17.7074 18.2072 17.7832 18.5025 17.7826 18.8025V20.8Z" />
</svg>
