<svg width="24" height="24" viewBox="0 0 24 24"  xmlns="http://www.w3.org/2000/svg">
<path d="M6.50017 24H23V2H1V24H6.50017ZM18.9672 3.51724H21.5333V5.41379H18.9672V3.51724ZM18.9672 6.93103H21.5333V8.82759H18.9672V6.93103ZM18.9672 10.3448H21.5333V12.2414H18.9672V10.3448ZM18.9672 13.7586H21.5333V15.6552H18.9672V13.7586ZM18.9672 17.1724H21.5333V19.069H18.9672V17.1724ZM18.9672 20.5862H21.5333V22.4828H18.9672V20.5862ZM6.50017 10.3448V3.51724H17.4998V12.2414H6.50017V10.3448ZM6.50017 20.5862V13.7586H17.4998V22.4828H6.50017V20.5862ZM2.46671 3.51724H5.03346V5.41379H2.46671V3.51724ZM2.46671 6.93103H5.03346V8.82759H2.46671V6.93103ZM2.46671 10.3448H5.03346V12.2414H2.46671V10.3448ZM2.46671 13.7586H5.03346V15.6552H2.46671V13.7586ZM2.46671 17.1724H5.03346V19.069H2.46671V17.1724ZM2.46671 20.5862H5.03346V22.4828H2.46671V20.5862Z" />
</svg>
